Frequently Asked Questions
…
Now lets do the the same for an animal at once:

trk %>% 
  nest(data = -c(id)) %>% 
  mutate(data = map(data, ~ .x %>% extract_covariates_var_time(r, max_time = hours(10 * 24)))) %>% 
  unnest(cols = data) -> trk2

trk2

## # A tibble: 1,000 x 5
##       id     x_     y_ t_                  time_var_covar
##    <int>  <dbl>  <dbl> <dttm>                       <dbl>
##  1     1 -0.560 -0.710 2019-01-01 00:00:00           1.86
##  2     1 -0.791 -0.454 2019-01-01 01:00:00           1.86
##  3     1  0.768 -0.700 2019-01-01 02:00:00           1.21
##  4     1  0.839 -1.05  2019-01-01 03:00:00           1.21
##  5     1  0.968 -2.00  2019-01-01 04:00:00           1.21
##  6     1  2.68  -2.04  2019-01-01 05:00:00           1.08
##  7     1  3.14  -2.83  2019-01-01 06:00:00           2.50
##  8     1  1.88  -4.50  2019-01-01 07:00:00           2.76
##  9     1  1.19  -4.88  2019-01-01 08:00:00           2.76
## 10     1  0.746 -3.96  2019-01-01 09:00:00           2.06
## # … with 990 more rows
…
